car_movement (3)/car_movement/RXTX_YB_restored/simulation/qsim/RXTX.msim.vcd
$comment
	File created using the following command:
		vcd file RXTX.msim.vcd -direction
$end
$date
	Sun Dec 18 23:56:40 2022
$end
$version
	ModelSim Version 10.5b
$end
$timescale
	1ps
$end

$scope module motor_status_vhd_vec_tst $end
$var wire 1 ! dist [7] $end
$var wire 1 " dist [6] $end
$var wire 1 # dist [5] $end
$var wire 1 $ dist [4] $end
$var wire 1 % dist [3] $end
$var wire 1 & dist [2] $end
$var wire 1 ' dist [1] $end
$var wire 1 ( dist [0] $end
$var wire 1 ) motor [3] $end
$var wire 1 * motor [2] $end
$var wire 1 + motor [1] $end
$var wire 1 , motor [0] $end
$var wire 1 - status [1] $end
$var wire 1 . status [0] $end

$scope module i1 $end
$var wire 1 / gnd $end
$var wire 1 0 vcc $end
$var wire 1 1 unknown $end
$var wire 1 2 devoe $end
$var wire 1 3 devclrn $end
$var wire 1 4 devpor $end
$var wire 1 5 ww_devoe $end
$var wire 1 6 ww_devclrn $end
$var wire 1 7 ww_devpor $end
$var wire 1 8 ww_dist [7] $end
$var wire 1 9 ww_dist [6] $end
$var wire 1 : ww_dist [5] $end
$var wire 1 ; ww_dist [4] $end
$var wire 1 < ww_dist [3] $end
$var wire 1 = ww_dist [2] $end
$var wire 1 > ww_dist [1] $end
$var wire 1 ? ww_dist [0] $end
$var wire 1 @ ww_status [1] $end
$var wire 1 A ww_status [0] $end
$var wire 1 B ww_motor [3] $end
$var wire 1 C ww_motor [2] $end
$var wire 1 D ww_motor [1] $end
$var wire 1 E ww_motor [0] $end
$var wire 1 F \~QUARTUS_CREATED_ADC1~_CHSEL_bus\ [4] $end
$var wire 1 G \~QUARTUS_CREATED_ADC1~_CHSEL_bus\ [3] $end
$var wire 1 H \~QUARTUS_CREATED_ADC1~_CHSEL_bus\ [2] $end
$var wire 1 I \~QUARTUS_CREATED_ADC1~_CHSEL_bus\ [1] $end
$var wire 1 J \~QUARTUS_CREATED_ADC1~_CHSEL_bus\ [0] $end
$var wire 1 K \~QUARTUS_CREATED_ADC2~_CHSEL_bus\ [4] $end
$var wire 1 L \~QUARTUS_CREATED_ADC2~_CHSEL_bus\ [3] $end
$var wire 1 M \~QUARTUS_CREATED_ADC2~_CHSEL_bus\ [2] $end
$var wire 1 N \~QUARTUS_CREATED_ADC2~_CHSEL_bus\ [1] $end
$var wire 1 O \~QUARTUS_CREATED_ADC2~_CHSEL_bus\ [0] $end
$var wire 1 P \~QUARTUS_CREATED_GND~I_combout\ $end
$var wire 1 Q \~QUARTUS_CREATED_UNVM~~busy\ $end
$var wire 1 R \~QUARTUS_CREATED_ADC1~~eoc\ $end
$var wire 1 S \~QUARTUS_CREATED_ADC2~~eoc\ $end
$var wire 1 T \status[0]~output_o\ $end
$var wire 1 U \status[1]~output_o\ $end
$var wire 1 V \motor[0]~output_o\ $end
$var wire 1 W \motor[1]~output_o\ $end
$var wire 1 X \motor[2]~output_o\ $end
$var wire 1 Y \motor[3]~output_o\ $end
$var wire 1 Z \dist[4]~input_o\ $end
$var wire 1 [ \dist[5]~input_o\ $end
$var wire 1 \ \LessThan0~1_combout\ $end
$var wire 1 ] \dist[6]~input_o\ $end
$var wire 1 ^ \dist[7]~input_o\ $end
$var wire 1 _ \dist[1]~input_o\ $end
$var wire 1 ` \dist[2]~input_o\ $end
$var wire 1 a \dist[3]~input_o\ $end
$var wire 1 b \dist[0]~input_o\ $end
$var wire 1 c \LessThan0~0_combout\ $end
$var wire 1 d \LessThan0~2_combout\ $end
$var wire 1 e \ALT_INV_LessThan0~2_combout\ $end
$upscope $end
$upscope $end
$enddefinitions $end
#0
$dumpvars
0/
10
x1
12
13
14
15
16
17
0P
zQ
zR
zS
0T
0U
1V
0W
0X
1Y
0Z
0[
0\
0]
0^
0_
0`
0a
0b
0c
0d
1e
0!
0"
0#
0$
0%
0&
0'
0(
0-
0.
1)
0*
0+
1,
08
09
0:
0;
0<
0=
0>
0?
0@
0A
1B
0C
0D
1E
0F
0G
0H
0I
0J
0K
0L
0M
0N
0O
$end
#20000
1"
19
1]
1d
0e
1X
0Y
1C
0B
1*
0)
#160000
0"
09
0]
0d
1e
0X
1Y
0C
1B
0*
1)
#490000
1#
1$
1;
1:
1[
1Z
1\
#500000
1%
1<
1a
1c
1d
0e
1X
0Y
1C
0B
1*
0)
#620000
0#
0$
0;
0:
0[
0Z
0\
0d
1e
0X
1Y
0C
1B
0*
1)
#630000
1$
1;
1Z
#780000
0$
0;
0Z
#790000
0%
0<
0a
0c
#850000
1#
1:
1[
#960000
0#
0:
0[
